Year,Amazon,Azure,Google
2010,0.14,0.15,0.18
2011,0.13,0.14,0.15
2012,0.12,0.125,0.115
2013,0.09,0.105,0.075
2014,0.075,0.08,0.04
2015,0.027,0.025,0.026
2016,0.026,0.024,0.026
2017,0.025,0.023,0.026
2018,0.023,0.022,0.026
2019,0.023,0.018,0.026
2020,0.023,0.018,0.026
